digraph "Fila"
{
  edge [fontname="Helvetica",fontsize="10",labelfontname="Helvetica",labelfontsize="10"];
  node [fontname="Helvetica",fontsize="10",shape=record];
  Node1 [label="Fila",height=0.2,width=0.4,color="black", fillcolor="grey75", style="filled", fontcolor="black"];
  Node2 -> Node1 [dir="back",color="darkorchid3",fontsize="10",style="dashed",label=" processo" ];
  Node2 [label="Processo",height=0.2,width=0.4,color="black", fillcolor="white", style="filled",URL="$structProcesso.html",tooltip="Struct que guarda os dados de um processo. "];
  Node1 -> Node1 [dir="back",color="darkorchid3",fontsize="10",style="dashed",label=" nseg" ];
}
