digraph "Gestor"
{
  edge [fontname="Helvetica",fontsize="10",labelfontname="Helvetica",labelfontsize="10"];
  node [fontname="Helvetica",fontsize="10",shape=record];
  Node1 [label="Gestor",height=0.2,width=0.4,color="black", fillcolor="grey75", style="filled", fontcolor="black"];
  Node2 -> Node1 [dir="back",color="darkorchid3",fontsize="10",style="dashed",label=" pcbTable" ];
  Node2 [label="Processo",height=0.2,width=0.4,color="black", fillcolor="white", style="filled",URL="$structProcesso.html",tooltip="Struct que guarda os dados de um processo. "];
  Node3 -> Node1 [dir="back",color="darkorchid3",fontsize="10",style="dashed",label=" processos_a_correr\nprocessos_terminados\nprocessos_bloqueados\nprocessos_concorrentes\nprontos" ];
  Node3 [label="Fila",height=0.2,width=0.4,color="black", fillcolor="white", style="filled",URL="$structFila.html",tooltip="Struct que guarda uma lista de processos. "];
  Node2 -> Node3 [dir="back",color="darkorchid3",fontsize="10",style="dashed",label=" processo" ];
  Node3 -> Node3 [dir="back",color="darkorchid3",fontsize="10",style="dashed",label=" nseg" ];
  Node4 -> Node1 [dir="back",color="darkorchid3",fontsize="10",style="dashed",label=" processo_atual" ];
  Node4 [label="Atual",height=0.2,width=0.4,color="black", fillcolor="white", style="filled",URL="$structAtual.html",tooltip="Struct que guarda o processo atual. "];
}
